…
```r
# 1.3 Filtering gapminder to all entries that have experienced a drop in life expectancy.
gapminder %>%
 group_by(country) %>% 
 mutate(lifeExp_decrease = lifeExp - lag(lifeExp, 1, order_by = year)) %>%
 drop_na() %>%
 filter(lifeExp_decrease < 0)
```

```
## # A tibble: 102 x 7
## # Groups:   country [142]
##    country  continent  year lifeExp     pop gdpPercap lifeExp_decrease
##    <fct>    <fct>     <int>   <dbl>   <int>     <dbl>            <dbl>
##  1 Albania  Europe     1992    71.6 3326498     2497.           -0.419
##  2 Angola   Africa     1987    39.9 7874230     2430.           -0.036
##  3 Benin    Africa     2002    54.4 7026113     1373.           -0.371
##  4 Botswana Africa     1992    62.7 1342614     7954.           -0.877
##  5 Botswana Africa     1997    52.6 1536536     8647.          -10.2  
##  6 Botswana Africa     2002    46.6 1630347    11004.           -5.92 
##  7 Bulgaria Europe     1977    70.8 8797022     7612.           -0.09 
##  8 Bulgaria Europe     1992    71.2 8658506     6303.           -0.15 
##  9 Bulgaria Europe     1997    70.3 8066057     5970.           -0.87 
## 10 Burundi  Africa     1992    44.7 5809236      632.           -3.48 
## # … with 92 more rows
```


```r
# 1.4 Filtering gapminder so that it shows the max GDP per capita experienced by each country.

gapminder %>%
  group_by(country, continent) %>%
  summarise(maxGDPperCap = max(gdpPercap))
```

```
## # A tibble: 142 x 3
## # Groups:   country [142]
##    country     continent maxGDPperCap
##    <fct>       <fct>            <dbl>
##  1 Afghanistan Asia              978.
##  2 Albania     Europe           5937.
##  3 Algeria     Africa           6223.
##  4 Angola      Africa           5523.
##  5 Argentina   Americas        12779.
##  6 Australia   Oceania         34435.
##  7 Austria     Europe          36126.
##  8 Bahrain     Asia            29796.
##  9 Bangladesh  Asia             1391.
## 10 Belgium     Europe          33693.
## # … with 132 more rows
```
…
