…
``` r
# 1.3 Filtering gapminder to all entries that have experienced a drop in life expectancy.
gapminder %>%
 group_by(country) %>% 
 mutate(lifeExp_decrease = lifeExp - lag(lifeExp, 1, order_by = year)) %>%
 drop_na() %>%
 filter(lifeExp_decrease < 0)
```

    ## # A tibble: 102 x 7
    ## # Groups:   country [142]
    ##    country  continent  year lifeExp     pop gdpPercap lifeExp_decrease
    ##    <fct>    <fct>     <int>   <dbl>   <int>     <dbl>            <dbl>
    ##  1 Albania  Europe     1992    71.6 3326498     2497.           -0.419
    ##  2 Angola   Africa     1987    39.9 7874230     2430.           -0.036
    ##  3 Benin    Africa     2002    54.4 7026113     1373.           -0.371
    ##  4 Botswana Africa     1992    62.7 1342614     7954.           -0.877
    ##  5 Botswana Africa     1997    52.6 1536536     8647.          -10.2  
    ##  6 Botswana Africa     2002    46.6 1630347    11004.           -5.92 
    ##  7 Bulgaria Europe     1977    70.8 8797022     7612.           -0.09 
    ##  8 Bulgaria Europe     1992    71.2 8658506     6303.           -0.15 
    ##  9 Bulgaria Europe     1997    70.3 8066057     5970.           -0.87 
    ## 10 Burundi  Africa     1992    44.7 5809236      632.           -3.48 
    ## # … with 92 more rows

``` r
# 1.4 Filtering gapminder so that it shows the max GDP per capita experienced by each country.

gapminder %>%
  group_by(country, continent) %>%
  summarise(maxGDPperCap = max(gdpPercap))
```

    ## # A tibble: 142 x 3
    ## # Groups:   country [142]
    ##    country     continent maxGDPperCap
    ##    <fct>       <fct>            <dbl>
    ##  1 Afghanistan Asia              978.
    ##  2 Albania     Europe           5937.
    ##  3 Algeria     Africa           6223.
    ##  4 Angola      Africa           5523.
    ##  5 Argentina   Americas        12779.
    ##  6 Australia   Oceania         34435.
    ##  7 Austria     Europe          36126.
    ##  8 Bahrain     Asia            29796.
    ##  9 Bangladesh  Asia             1391.
    ## 10 Belgium     Europe          33693.
    ## # … with 132 more rows
…
“==” is a logical operator that has here converted country into a vector
of length 2 consisting of Rwanda and Afghanistan. “==” is meant to
compare if two things are exactly equal. Since, here the vectors are not
of equal length, so Vectors- Rwanda and Afghanistan are recycled.

To fix this we can use %in% which checks whether or not the object (here
country) is contained in the other object(c(Rwanda, Afghanistan) or not
and then filter drops the NA values.So we get the following table.

``` r
gapminder %>%
    filter (country %in% c("Rwanda", "Afghanistan"))
```

    ## # A tibble: 24 x 6
    ##    country     continent  year lifeExp      pop gdpPercap
    ##    <fct>       <fct>     <int>   <dbl>    <int>     <dbl>
    ##  1 Afghanistan Asia       1952    28.8  8425333      779.
    ##  2 Afghanistan Asia       1957    30.3  9240934      821.
    ##  3 Afghanistan Asia       1962    32.0 10267083      853.
    ##  4 Afghanistan Asia       1967    34.0 11537966      836.
    ##  5 Afghanistan Asia       1972    36.1 13079460      740.
    ##  6 Afghanistan Asia       1977    38.4 14880372      786.
    ##  7 Afghanistan Asia       1982    39.9 12881816      978.
    ##  8 Afghanistan Asia       1987    40.8 13867957      852.
    ##  9 Afghanistan Asia       1992    41.7 16317921      649.
    ## 10 Afghanistan Asia       1997    41.8 22227415      635.
    ## # … with 14 more rows
