hw05
…
dropOCN_gap_dropped$continent %>%
  levels()

## [1] "Africa"   "Americas" "Asia"     "Europe"

The new data set now has 4 levels instead of 5.

Reorder the levels of country or continent.

gapminder %>%
  filter(continent == "Asia") %>%
  group_by(country)%>%
  summarize(sd = sd(gdpPercap))

## # A tibble: 33 x 2
##    country              sd
##    <fct>             <dbl>
##  1 Afghanistan        108.
##  2 Bahrain           5415.
##  3 Bangladesh         235.
##  4 Cambodia           360.
##  5 China             1371.
##  6 Hong Kong, China 12207.
##  7 India              570.
##  8 Indonesia          997.
##  9 Iran              2954.
## 10 Iraq              4150.
## #  with 23 more rows
…
