hw03
…
Since there is not much difference between the mean and the median. I will use the mean value. And calculate the number of countries in each continent

gapminder %>%
  group_by(continent, year)%>%
  mutate(total_countries = length(unique(country)))%>%
  filter(lifeExp < 59.47444)%>%
  group_by(continent, year)%>%
  mutate(no_of_countries = length(unique(country)))%>%
  mutate(percentage_of_countries= (no_of_countries/total_countries)*100)%>%
  select(continent, year, no_of_countries, total_countries, percentage_of_countries) %>%
  arrange(continent) %>%
  as_tibble( )

## # A tibble: 809 x 5
##    continent  year no_of_countries total_countries percentage_of_countries
##    <fct>     <int>           <int>           <int>                   <dbl>
##  1 Africa     1952              52              52                   100  
##  2 Africa     1957              52              52                   100  
##  3 Africa     1962              51              52                    98.1
##  4 Africa     1967              50              52                    96.2
##  5 Africa     1972              50              52                    96.2
##  6 Africa     1977              49              52                    94.2
##  7 Africa     1952              52              52                   100  
##  8 Africa     1957              52              52                   100  
##  9 Africa     1962              51              52                    98.1
## 10 Africa     1967              50              52                    96.2
## #  with 799 more rows
…
